[32mINFO    [0m WDM:logger.py:12 

[32mINFO    [0m WDM:logger.py:12 ====== WebDriver manager ======
[32mINFO    [0m WDM:logger.py:12 Driver [C:\Users\Korisnik\.wdm\drivers\operadriver\win64\v.94.0.4606.61\operadriver_win64/] found in cache